Test1B/simulation/qsim/div11.msim.vcd
$comment
	File created using the following command:
		vcd file div11.msim.vcd -direction
$end
$date
	Wed Feb 27 01:27:11 2019
$end
$version
	ModelSim Version 10.4b
$end
$timescale
	1ps
$end

$scope module div11_vlg_vec_tst $end
$var reg 4 ! a0 [3:0] $end
$var reg 4 " a1 [3:0] $end
$var reg 4 # a2 [3:0] $end
$var reg 4 $ a3 [3:0] $end
$var wire 1 % result $end

$scope module i1 $end
$var wire 1 & gnd $end
$var wire 1 ' vcc $end
$var wire 1 ( unknown $end
$var tri1 1 ) devclrn $end
$var tri1 1 * devpor $end
$var tri1 1 + devoe $end
$var wire 1 , ~QUARTUS_CREATED_GND~I_combout $end
$var wire 1 - a3[0]~input_o $end
$var wire 1 . a2[0]~input_o $end
$var wire 1 / inst4|FA0|HA_1|xor~0_combout $end
$var wire 1 0 a1[1]~input_o $end
$var wire 1 1 a2[1]~input_o $end
$var wire 1 2 a3[1]~input_o $end
$var wire 1 3 inst5|FA1|HA_1|xor~combout $end
$var wire 1 4 a1[0]~input_o $end
$var wire 1 5 a0[1]~input_o $end
$var wire 1 6 a0[0]~input_o $end
$var wire 1 7 inst6|FA1|or_cout~combout $end
$var wire 1 8 a2[2]~input_o $end
$var wire 1 9 a3[3]~input_o $end
$var wire 1 : a2[3]~input_o $end
$var wire 1 ; a1[3]~input_o $end
$var wire 1 < inst4|FA1|or_cout~combout $end
$var wire 1 = a3[2]~input_o $end
$var wire 1 > inst5|FA3|HA_1|xor~combout $end
$var wire 1 ? a1[2]~input_o $end
$var wire 1 @ inst5|FA1|or_cout~combout $end
$var wire 1 A inst5|FA2|or_cout~combout $end
$var wire 1 B inst5|FA2|HA_2|xor~combout $end
$var wire 1 C a0[3]~input_o $end
$var wire 1 D a0[2]~input_o $end
$var wire 1 E inst6|FA3|HA_2|xor~combout $end
$var wire 1 F inst6|FA2|HA_2|xor~combout $end
$var wire 1 G inst6|FA1|HA_2|xor~combout $end
$var wire 1 H inst6|FA0|HA_1|xor~combout $end
$var wire 1 I inst4|FA3|or_cout~combout $end
$var wire 1 J inst6|FA2|or_cout~combout $end
$var wire 1 K inst4|FA3|HA_2|xor~combout $end
$var wire 1 L inst10~0_combout $end
$var wire 1 M inst26~0_combout $end
$var wire 1 N inst26~1_combout $end
$upscope $end
$upscope $end
$enddefinitions $end
#0
$dumpvars
b1000 !
b11 "
b101 #
b100 $
0%
0&
1'
x(
1)
1*
1+
0,
0-
1.
1/
10
01
02
03
14
05
06
07
18
09
0:
0;
0<
1=
1>
0?
1@
0A
1B
1C
0D
0E
1F
1G
0H
1I
0J
1K
0L
1M
0N
$end
#10000
b0 !
b100 !
b1011 "
b1001 "
b1 #
b11 #
b10 #
b1100 $
b1000 $
0=
19
0.
11
08
00
1;
1D
0C
0M
1L
1J
0F
0@
0K
0I
0/
1H
0G
0B
1A
0J
1F
1N
1%
#20000
b110 !
b1000 "
b1010 $
b0 "
b110 #
b100 #
b10 $
b110 $
01
18
12
1=
09
04
0;
15
17
0H
1K
1I
1<
0K
0I
1B
0>
1M
0L
1J
0F
1E
0N
0%
0E
1F
#30000
b1110 !
b1010 !
b1000 !
b1 "
b100 $
b0 $
02
0=
14
05
0D
1C
1E
0F
07
1H
1@
1K
1I
0B
1>
0<
13
1G
0J
0M
1M
1N
1%
#40000
b0 #
b0 !
0C
08
1B
0A
0E
0M
1L
1E
1F
0N
0%
#50000
b101 "
b111 "
b1 #
b11 #
b10 !
b100 $
1=
15
1.
11
10
1?
0@
1/
0G
17
0K
0I
0>
1J
0F
0H
1G
07
0B
1A
1M
0L
0J
0M
1L
#60000
b110 "
b111 #
b10 "
b110 #
b0 !
05
0.
18
04
0?
1H
0G
1K
1I
1>
0/
0H
0E
1M
0L
1N
1%
#70000
b1 !
b1110 #
b101 $
b1101 $
b101 !
b0 "
b1100 #
b1 "
b101 "
b1101 #
b111 !
14
00
1?
1-
19
1.
01
1:
16
15
1D
1F
1G
17
1@
1B
0A
0M
1L
1J
0B
0N
0%
0F
1M
0L
#80000
b1101 "
b1111 $
b1011 $
b110 !
b1111 "
b1110 "
b1100 #
b100 !
0.
06
05
12
0=
04
10
1;
0M
1L
0>
03
0G
07
1B
1<
1/
1H
1G
0B
1E
0J
1F
0E
#90000
b1000 #
b0 #
b11 $
b10 #
b1010 "
b10 "
b111 $
b0 "
b1 "
b110 !
15
14
00
0?
0;
1=
09
11
08
0:
0K
0I
1B
0@
0H
0G
17
1J
1E
0B
1A
1M
0L
0E
0F
1N
1%
#100000
b110 $
b10 !
b100 $
b11 !
b11 #
b1100 $
b1 #
b1000 $
b11 "
b10 "
b1 !
04
10
1.
01
16
05
0D
0-
02
0=
19
1K
1>
1B
1@
0<
0J
1F
1E
0M
1L
0K
0A
0>
1J
0F
0N
0%
#110000
b1001 !
b1001 #
b110 "
b1010 $
b1000 #
b10 $
b1010 #
b110 $
b100 "
b101 "
12
1=
09
14
00
1?
0.
11
1:
1C
1M
0L
0E
1K
1I
1>
13
0/
1H
1G
07
0J
1F
0H
0G
17
1J
0F
1E
#120000
b1110 #
b1101 "
b111 $
b1000 !
b1010 !
b1001 "
b101 $
b1100 #
06
15
1-
02
0?
1;
01
18
0K
0@
1<
03
1/
1H
0H
1K
1A
0>
#130000
b1110 !
b100 #
b1101 $
b1001 $
b1011 "
b1010 "
b10 "
b1000 $
b1100 !
b110 "
b1010 $
04
10
1?
0;
0-
12
0=
19
0:
05
1D
1F
1G
07
0K
0I
0A
13
0/
0M
1H
0H
0G
1M
0E
0F
1N
1%
#140000
b101 #
b1000 !
b1110 $
b1110 "
b1111 $
b1010 !
b1010 "
b1101 $
0?
1;
1-
02
1=
15
0D
1.
1@
0<
03
0J
1F
1E
1G
1K
1A
0M
1L
0E
0G
17
0K
0A
1>
0N
0%
1E
1J
0F
#150000
b10 !
b11 !
b111 #
b1111 #
b101 $
b1011 "
b111 !
b1 $
b11 "
b0 $
b101 !
b111 "
14
1?
0;
0-
0=
09
11
1:
16
05
1D
0C
0E
1F
1G
07
1I
0>
0@
13
1/
1H
0G
0B
1A
1E
1M
0L
0F
0M
0J
1F
1M
#160000
b1011 #
b101 "
b1010 #
b10 $
b1101 !
b1000 #
b0 #
b100 "
b1001 !
b110 $
b1011 !
b0 "
15
0D
1C
12
1=
04
00
0?
0.
01
08
0:
0I
1B
1<
03
0/
0H
17
0M
0E
0F
1J
1E
1H
0B
1M
0J
1F
0E
#170000
b1110 $
b1111 $
b100 #
b1100 #
b1011 $
18
1:
1-
0=
19
1K
1I
1>
13
1/
0H
1E
#180000
b1010 !
b1101 #
b1001 $
b10 !
b0 !
b100 "
b1001 #
b1101 $
1?
02
1=
1.
08
06
05
0C
0E
07
1H
0K
0I
1B
0A
0>
0<
0/
0H
0B
1A
0M
1L
1E
0F
#190000
b110 "
b101 $
b1 #
b1 !
b0 #
b1001 !
b100 #
16
1C
0.
18
0:
09
10
1K
1I
1>
1B
0A
1<
1/
1M
0L
0E
1H
0H
1G
0K
0I
0B
1A
0>
1F
0F
#200000
b111 "
b1101 !
b100 $
b110 $
b10 $
b1010 $
b1100 #
b1100 !
b100 !
b1000 #
08
1:
0-
12
0=
19
06
1D
0C
14
0G
1@
0M
1L
1E
1F
0/
1H
1G
1B
0A
1J
0F
#210000
b1111 "
b1011 "
b1001 "
b1000 $
b1100 $
b101 !
16
02
1=
00
0?
1;
1>
0<
0H
0G
17
1F
0E
0B
1A
1E
0F
#220000
b1010 #
b111 !
b1011 #
b11 #
b1101 "
b1111 "
b1110 $
b1010 $
12
0=
10
1?
15
1.
11
0:
03
1/
1G
0A
0E
1H
0G
#230000
b1110 "
b10 $
b1111 !
b1110 !
b10 #
b1100 "
b0 $
0.
06
1C
02
09
04
00
0@
1K
1I
0>
1E
0/
0H
0E
1M
0L
1B
1F
1N
1%
0N
0%
#240000
b1 $
b110 #
b100 "
b100 #
b1100 !
b1100 #
b0 "
b101 $
b1 "
b100 !
b1101 #
b11 "
05
0C
14
10
0?
0;
1.
01
18
1:
1-
1=
0K
0B
1A
1@
1H
07
1E
0J
1B
0A
0M
1M
1J
0F
#250000
b0 !
b1 !
b111 $
b110 $
b1001 #
b1 #
b111 "
b10 $
b101 "
00
1?
08
0:
0-
12
0=
16
0D
0J
1F
0E
0H
1G
1K
0B
1>
0@
1<
1/
1H
0K
0I
1A
0>
1E
0F
0M
1L
#260000
b100 "
b1001 !
b0 #
b1000 !
b11 $
b111 $
b110 "
1-
1=
0.
06
1C
04
10
1@
1M
0L
0E
1B
0A
0M
1L
1E
1F
0B
0F
#270000
b1111 $
b1110 "
b10 #
b1100 !
b1101 $
b1010 #
b1111 "
b1011 #
b1101 !
16
1D
1.
11
1:
14
1;
02
19
1>
0<
13
0/
1F
0H
0G
17
1B
0E
1J
1E
#280000
b101 !
b1001 $
b1101 "
b1001 #
b1011 $
b1100 "
b100 !
01
04
00
12
0=
06
0C
0E
07
1K
1I
0B
0>
0@
1<
03
1G
0K
0I
1A
1>
0J
#290000
b1101 #
b100 "
b101 #
b1100 !
b1111 $
b1101 $
b101 "
02
1=
1C
14
0;
18
0:
1K
1M
0L
1H
0G
1@
1E
0<
13
1G
0K
0A
0>
0M
1L
#300000
b1110 !
b1 "
b1100 $
b1010 !
b100 #
b11 "
b110 #
b10 #
b1011 "
b1010 #
b1000 $
b1010 $
b1010 "
0.
11
08
1:
0-
12
0=
04
10
0?
1;
15
0D
0F
1B
03
0H
1K
1I
0G
17
1F
1J
0F
0E
1M
0L
1N
1%
#310000
b10 !
b0 !
b1000 "
b1000 #
b0 "
b1000 $
02
01
00
0;
05
0C
1E
1G
07
1>
0@
13
0G
0B
1A
0J
1F
0N
0%
0E
0F
1N
1%
#320000
b0 $
b1 !
b1100 #
b1 "
b1001 !
b1011 !
b11 "
b1110 #
b10 $
14
10
11
18
16
15
1C
12
09
0K
0>
1@
03
1E
1G
17
1B
1J
0G
0B
0M
0N
0%
0J
1F
0E
#330000
b111 "
b11 $
b110 #
b111 $
b10 #
b11 !
b1 !
b101 "
05
0C
08
0:
1-
1=
00
1?
1B
0A
0@
0I
1<
1/
1M
1E
1G
07
0E
1H
0M
1L
#340000
b101 !
b1111 $
b1 "
b1010 #
b1011 $
b1110 #
b11 "
18
1:
10
0?
0=
19
1D
1J
0F
1E
1K
1I
1>
0B
1A
13
0G
1M
0L
0E
0J
1F
#350000
b1111 #
b100 !
b1101 #
b1010 $
b1100 !
b1110 !
b1010 !
b1001 #
0-
06
15
0D
1C
1.
01
08
0K
0I
1B
0>
1E
0F
1G
0H
0E
1F
#360000
b1000 $
b0 $
b111 "
b1000 #
b1011 !
b1 $
b11 !
b111 !
b1100 #
16
1D
0C
0.
18
1?
1-
02
09
1I
0A
0M
1L
1J
0F
1H
1M
0L
1E
1N
1%
#370000
b1111 "
b1110 "
b1100 "
b11 $
b10 $
b1111 !
1C
0-
12
04
00
1;
1>
03
0H
0G
17
0/
0E
1H
1F
1E
0N
0%
#380000
b100 #
b110 $
b110 #
b1101 !
b1110 $
b111 #
b1100 !
b11 #
b100 "
b110 "
b1100 $
10
0;
06
05
02
1=
19
1.
11
08
0:
1K
0I
0<
13
1/
1G
07
0H
0M
0F
1H
0G
0B
1A
1L
1M
0L
0J
1F
0M
1L
#390000
b10 "
b1101 $
b1001 $
b1 #
b1110 !
b1 $
b0 #
b1111 !
b100 #
b1010 "
b11 $
16
15
0.
01
18
1-
12
0=
09
0?
1;
0>
1B
1I
1@
1<
03
17
0H
1J
1G
0A
1M
0L
0E
#400000
b1011 !
b1011 "
b11 !
b1001 "
b10 $
b110 $
b0 #
b1 "
08
0-
1=
14
00
0;
0D
0C
1E
0F
0@
1H
0G
0K
0I
0/
0H
0M
1L
0B
1A
1M
0L
0J
1F
0M
1L
#410000
b1000 #
b101 "
b1010 #
b1 !
b0 !
b100 $
b1000 !
b111 "
b0 $
b1110 #
02
0=
06
05
1C
10
1?
11
18
1:
1I
1B
0A
1@
0<
13
1M
0L
0E
07
1H
1E
1G
#420000
b1000 $
b1111 #
b1100 !
b110 "
b1001 $
b1110 "
b1110 !
b110 !
b1101 $
04
1;
15
1D
0C
1.
1-
1=
19
1K
0B
0@
0M
1L
1J
0F
0H
1B
0J
1F
0E
1J
0F
1E
#430000
b111 #
b1010 "
b111 !
b11 #
b101 $
b10 #
b11 !
b1 !
b1001 !
b1 $
0=
09
16
05
0D
1C
0?
0.
08
0:
0B
1A
1@
03
1/
1M
0L
0J
1F
0G
1H
0H
17
1B
0A
0E
0F
0M
1L
1J
1N
1%
1M
0L
0N
0%
1N
1%
#440000
b0 #
b11 $
b1011 "
b11 "
b1000 #
b111 "
b1000 !
b1001 #
b1010 !
b111 $
06
15
14
1?
0;
12
1=
1.
01
1:
1>
1<
13
0/
1H
0B
1E
0J
1F
0E
0N
0%
#450000
b101 "
b1011 #
b101 $
b100 "
b11 #
b0 "
b1000 !
b1 $
05
02
0=
11
0:
04
00
0?
1A
0@
03
0H
07
0K
0I
0>
0<
1K
1I
1>
0F
1G
1E
#460000
b0 $
b1000 $
b1001 !
b10 #
b0 #
b1010 $
b1 "
b1110 $
14
0.
01
16
0-
12
1=
19
0I
1B
1<
0B
1F
0M
1L
0F
#470000
b100 #
b1 !
b101 "
b11 !
b1111 $
b110 #
b1101 $
b100 "
1-
02
04
1?
15
0C
11
18
0<
13
0E
0G
17
1H
1/
0H
1F
0K
1B
0A
0>
1E
1J
0F
#480000
b111 !
b110 "
b1110 #
b110 !
b1111 #
b100 !
b1100 $
b1101 #
b111 "
0-
1.
01
1:
14
10
06
05
1D
1F
07
1@
03
1K
1I
1>
0E
1M
0L
1G
0B
0F
0J
1F
1E
0M
1L
#490000
b1111 "
b1001 #
b0 !
b1101 "
b1 #
b1 !
b0 #
b11 !
16
15
0D
0.
08
0:
00
1;
0>
13
0I
1B
0/
0F
0G
17
1H
1J
0H
1G
0L
#500000
b1101 $
b10 #
b110 #
b1111 "
b10 !
b111 #
06
10
1.
11
18
1-
0K
0B
1>
1H
0G
0J
1F
1L
0L
#510000
b101 $
b1 $
b110 !
b1111 #
b1011 #
b1101 "
b1010 #
00
0.
08
1:
1D
0=
09
1I
1J
0F
0E
0@
1/
0H
1G
07
1B
1M
#520000
b1100 "
b1000 #
b1001 $
b1101 $
b10 !
b1110 "
b1001 #
0D
1=
19
1.
01
04
10
1@
03
1H
0/
0I
0B
1A
0J
1F
1E
0M
1L
0E
0F
0H
0G
17
1B
0A
0L
1J
1L
#530000
b1010 "
b1111 $
b10 "
b11 !
b1 #
b11 #
b111 $
b111 !
b0 "
b10 #
0.
11
0:
16
1D
12
09
00
0?
0;
0>
0B
1A
0@
1<
1F
1H
1/
0H
1G
1M
0L
0F
1N
1%
0N
0%
#540000
b1111 !
b1101 !
b110 $
b110 #
b1 "
b10 $
b101 "
b0 $
b1100 !
b1000 !
b111 #
14
1?
1.
18
0-
02
0=
06
05
0D
1C
0J
1F
07
1K
1I
1B
0A
1>
0<
0B
1A
1E
0F
#550000
b1101 "
b1000 $
b1100 "
b1100 $
b1110 $
b1100 !
b110 #
0.
1D
12
1=
19
04
1;
1H
0K
0I
1B
0A
13
1F
0/
0H
0G
0M
1L
1J
0F
#560000
b100 !
b110 !
b1111 $
b10 #
b1000 "
b111 $
b1001 "
b11 $
b1 $
b10 !
b11 #
14
0?
1.
08
1-
02
0=
09
15
0D
0C
0J
1F
17
1K
1I
0>
0B
1A
03
1H
1G
07
0F
#570000
b1011 #
b1001 #
b1 "
b1010 !
b0 $
b1101 #
b0 "
b10 $
b1100 #
0-
12
1C
04
0;
0.
01
18
1:
0K
1B
1<
1M
0L
0H
0G
17
0E
1J
1E
0B
0M
1N
1%
0J
1F
0E
0N
0%
#580000
b10 "
b1000 !
b110 "
b110 $
b1100 !
b1110 "
b111 $
b1111 "
1-
1=
05
1D
14
10
1?
1;
1M
1@
1H
07
1J
0F
1E
1K
1/
0H
1G
0J
1F
0E
1B
0A
0M
1L
1J
0F
1M
0L
#590000
b1111 $
b1000 #
b1001 #
b1101 "
b1110 !
15
00
1.
08
19
0K
0I
1>
0B
0@
0/
0G
17
1E
1H
1G
07
1B
0M
1L
1N
1%
0N
0%
#600000
b1 #
b11 #
b1001 "
b1010 !
b1 "
b1110 $
b110 $
b111 #
b110 #
b11 "
b1000 !
0-
09
05
0D
10
0?
0;
0.
11
18
0:
0>
1A
1@
0<
1M
0L
0J
1F
0E
0G
1K
1I
0A
1>
#610000
b0 !
b100 $
b1110 #
b111 "
b1100 $
b1010 #
b1011 #
1?
1.
08
1:
02
19
0C
0M
1L
1E
0K
0I
0>
0@
13
1/
0H
0B
1A
0E
1E
0F
#620000
b1 !
b1000 $
b110 "
b1001 #
b10 "
b0 $
b1000 #
0.
01
04
0?
0=
09
16
1G
1I
1@
03
0/
1H
1B
0A
1M
0L
0E
1F
1N
1%
0N
0%
#630000
b101 !
b1010 "
b1 $
b1101 !
b11 $
b1100 #
b111 $
b1011 "
b1110 #
11
18
1-
12
1=
14
1;
1D
1C
1J
0F
1>
0H
0@
1<
13
1/
1H
0G
1K
1A
0>
1E
#640000
b1001 "
b1111 !
b1110 !
b1010 !
b1 "
b110 $
b10 $
b0 "
b1100 #
01
0-
0=
06
15
0D
04
00
0;
0M
03
1G
0J
1F
0E
0K
0B
0/
0H
0G
17
0F
1F
#650000
b100 #
b1010 $
b101 #
b1000 $
b1 #
b1011 !
16
02
19
1.
08
0:
1K
0I
1>
1B
0<
13
1/
1H
0H
0K
0B
0>
1J
0F
1L
1M
0L
0J
1F
#660000
b100 "
b110 "
b1111 !
b1110 "
b1001 $
b1101 $
b1111 "
b1001 #
1:
1-
1=
1D
14
10
1?
1;
0M
1L
1>
1@
03
1H
1G
07
1J
0F
1E
0/
0H
0G
17
1M
0L
0J
1F
1B
0A
0M
1L
1J
#670000
b101 $
b1110 !
b1011 "
b1001 "
b1010 !
b1 "
b1 $
b1 #
0:
00
0?
0;
06
0D
0=
09
1K
1I
0F
1H
1G
07
1M
0L
13
0G
17
0J
1F
0E
1N
1%
1J
0F
1E
0N
0%
#680000
b1000 !
b11 #
b10 #
b110 #
b0 "
b1100 !
b1000 "
b1110 #
04
1;
0.
11
18
1:
05
1D
1F
07
0K
0B
1A
0@
1/
0H
1H
1B
0M
0J
1M
1J
0F
0E
0M
#690000
b100 !
b11 $
b10 $
b1100 "
b110 $
b1100 #
01
1?
0-
12
1=
0C
1M
1E
0A
1<
03
0/
0H
1G
1K
0B
1A
0>
0E
1E
0J
1F
0M
1L
#700000
b101 !
b111 !
b1101 #
b11 !
b100 "
b101 #
b100 $
b101 $
b1 $
1-
02
0=
0;
1.
0:
16
15
0D
0F
0G
17
1H
1>
0<
13
1M
0L
1B
0A
0M
1L
0E
1J
1G
07
0B
1A
1M
0L
0J
#710000
b1001 $
b110 "
b10 "
b111 #
b10 !
b0 !
b110 #
b100 !
b1010 "
b1011 $
b1010 $
06
05
1D
0.
11
10
0?
1;
0-
12
19
0K
0I
1@
03
0M
1L
1B
1F
0G
0H
1J
0F
1E
1G
0B
0J
1F
0E
#720000
b10 #
b1011 "
b1010 #
b1111 "
b1000 #
b110 !
b1001 #
b10 !
b111 "
b1000 $
b1001 $
1-
02
15
0D
14
1?
0;
1.
01
08
1:
1K
1I
0A
1H
0F
1E
#730000
b11 !
b110 "
b1 !
b1000 #
b101 !
b1011 $
12
0.
04
16
05
1D
1F
1<
1/
0H
0G
17
0K
0I
1B
0>
1J
#740000
b1101 !
b11 $
b1100 #
b100 #
b10 "
b1010 "
b1111 !
0?
1;
18
0:
09
15
1C
0E
1G
1K
1I
1M
0L
#750000
b111 $
b1000 "
b1011 !
b101 $
b1101 $
b0 #
b1100 "
b100 "
b1001 !
08
05
0D
00
1?
0;
02
1=
19
0I
1>
0B
0@
0F
0G
1B
0J
1F
0M
1L
1N
1%
1J
0F
1E
0N
0%
#760000
b10 #
b1000 !
b1010 #
b1100 !
b1100 "
b1110 !
1;
06
15
1D
11
1:
0K
0<
13
1F
1H
1G
07
0B
1A
1M
0L
0J
0M
1L
#770000
b1100 $
b1101 "
b110 !
b1110 $
b110 $
b1110 #
b1100 #
b111 !
b101 "
01
18
16
0C
14
0;
0-
12
09
1I
0>
1<
03
0/
0E
1B
0A
1M
0L
1E
1J
0F
0H
0G
17
1K
0B
1A
1>
#780000
b1101 #
b111 "
b101 !
b1110 $
b1001 #
b1011 #
b100 !
b1111 "
19
06
05
10
1;
1.
11
08
0K
0I
1B
0A
1@
0<
1/
07
1H
0E
0H
1G
0M
1L
#790000
b11 #
b0 !
b1110 "
b1000 !
b1010 !
b110 $
b1 #
b1011 !
09
04
16
15
0D
1C
01
0:
0@
1<
13
0J
1F
17
1J
0F
1E
0G
#800000
b1010 "
b100 $
b0 #
b100 #
b1011 "
b11 !
0C
0.
18
02
14
0?
1A
1H
1G
1@
07
0<
03
0/
0E
0H
0G
17
1K
1I
0A
0>
0J
1F
1E
1J
0F
#810000
b11 "
b1 !
b0 !
b111 "
b101 #
b1 #
b110 "
b1000 !
1.
08
06
05
1C
04
1?
0;
1M
0L
1G
07
0E
0K
0I
1/
1H
0J
1F
1E
0M
1L
#820000
b0 $
b1 $
b1001 #
b1100 !
b1001 $
b1011 #
b1110 "
b1101 !
b1010 #
1;
16
1D
0.
11
1:
1-
0=
19
1K
1I
0B
1J
0F
0E
0H
0G
17
1M
0L
1N
1%
#830000
b1011 $
b1010 "
b1111 $
b10 #
b1001 !
b111 $
b0 #
0D
01
0:
0?
12
1=
09
0K
0I
1>
1A
1<
0J
1F
1E
0M
1L
1B
0A
0N
0%
1J
0F
#840000
b1011 !
b1 #
b101 $
b1110 "
b1 $
b1111 !
b1001 $
1?
02
0=
19
1.
15
1D
1F
1G
0<
0/
1K
0>
0E
1H
0G
0K
0B
1>
1E
0F
1N
1%
0N
0%
#850000
b1100 "
b101 #
b1101 "
b1000 $
b100 #
b1010 $
b1011 !
b10 $
0D
0-
12
09
0.
18
14
00
0@
0H
1K
1I
1B
0>
1<
0J
1F
0E
1J
0F
1M
0L
1N
1%
#860000
b101 "
b1010 !
b1100 #
b1000 !
b1 "
b11 "
b1000 #
b11 $
b1100 !
1-
08
1:
06
05
1D
10
0?
0;
1>
1A
1@
1F
07
1H
1/
0H
1G
0F
0B
0M
0N
0%
0J
1F
1E
1M
#870000
b100 !
b1010 #
b111 $
b1011 #
b1011 "
b110 !
b1001 "
b110 $
b10 !
00
1;
0-
1=
1.
11
15
0D
0C
0M
1L
0E
0F
0G
17
0@
0<
13
1B
0A
0>
1E
1J
1G
07
1A
1M
0L
0J
1F
0M
1L
#880000
b1000 "
b100 $
b11 #
b10 #
b0 "
b0 !
b10 "
05
0.
0:
02
04
10
0;
1M
0L
1H
0G
0K
0I
0/
0H
0M
1L
#890000
b110 "
b1000 !
b0 $
b1100 !
b111 "
b10 $
b11 #
b1111 "
b1110 !
1.
12
0=
15
1D
1C
14
1?
1;
0A
1H
1@
17
1J
0F
1K
1I
03
1/
0H
1M
0L
1F
0E
0B
0F
1N
1%
#900000
b1111 !
b111 #
b111 !
b11 !
b0 $
02
18
16
0D
0C
0M
1L
0J
1F
1H
1B
0@
13
1G
07
0B
1A
1J
0F
1E
1M
0L
0J
0N
0%
0M
1L
1N
1%
0N
0%
#910000
b1 $
b1011 "
b110 #
b10 !
b1010 !
b11 $
06
1C
0.
0?
1-
12
1<
1B
1M
0L
0E
0H
1F
0B
0F
#920000
b1011 $
b100 #
b1100 #
b1001 "
b1000 "
b0 "
b1000 #
b1010 $
b10 !
0C
04
00
0;
01
08
1:
0-
19
0K
0I
03
0/
1B
1H
1E
1F
0H
0G
17
0M
1L
1N
1%
1J
0F
0E
0N
0%
1M
0L
1N
1%
#930000
b1001 #
b1011 #
b10 "
b1011 $
1-
10
1.
11
1@
0<
1K
1I
0A
1>
#940000
b1111 $
b0 !
b110 "
b1101 $
b11 #
b111 #
b1000 !
b101 #
b100 "
b1100 $
01
18
0:
00
1?
05
1C
0-
02
1=
0K
0I
0B
0>
0@
13
1/
1E
1G
07
0J
1H
0G
1B
0N
0%
1F
0M
1L
#950000
b1100 !
b1101 !
b100 $
b100 #
b1111 !
b0 "
b110 $
b1100 #
b1000 #
b111 !
b10 "
10
0?
0.
08
1:
12
09
16
15
1D
0C
1J
0F
17
0H
1K
1I
1>
1<
1A
0/
1H
1G
07
1M
0L
0B
1F
0J
0E
#960000
b11 "
b1011 "
b1010 #
b110 !
b1110 $
b100 !
b1111 "
b10 #
b1101 "
19
06
05
11
0:
14
00
1?
1;
0M
1L
0>
1B
0A
1@
0I
0<
0L
1E
1J
0F
#970000
b0 !
b11 #
b1100 $
b1111 "
10
02
1.
0D
0J
1F
0E
0@
1/
0H
0G
0B
1A
1E
0F
#980000
b1000 !
b1110 "
b1 #
b1001 !
b100 $
b1010 "
09
01
04
0?
16
1C
1L
0E
1G
1B
1@
03
0K
1>
1E
0G
17
0B
1F
#990000
b0 $
b1 $
b10 "
b1011 !
b1001 #
b1000 #
b11 $
b0 "
b11 !
b1 "
b10 !
b1011 $
0.
1:
06
15
0C
14
00
0;
1-
12
0=
19
1K
1I
1B
0A
0@
1<
13
0E
1G
07
0K
0I
1A
0>
1J
0F
1M
0L
1E
0J
1F
0M
1L
