Test1a/simulation/qsim/div3.msim.vcd
$comment
	File created using the following command:
		vcd file div3.msim.vcd -direction
$end
$date
	Tue Feb 26 23:45:53 2019
$end
$version
	ModelSim Version 10.4b
$end
$timescale
	1ps
$end

$scope module div3_vlg_vec_tst $end
$var reg 4 ! a0 [3:0] $end
$var reg 4 " a1 [3:0] $end
$var reg 4 # a2 [3:0] $end
$var reg 4 $ a3 [3:0] $end
$var wire 1 % result $end

$scope module i1 $end
$var wire 1 & gnd $end
$var wire 1 ' vcc $end
$var wire 1 ( unknown $end
$var tri1 1 ) devclrn $end
$var tri1 1 * devpor $end
$var tri1 1 + devoe $end
$var wire 1 , ~QUARTUS_CREATED_GND~I_combout $end
$var wire 1 - a0[3]~input_o $end
$var wire 1 . a0[0]~input_o $end
$var wire 1 / a0[2]~input_o $end
$var wire 1 0 a0[1]~input_o $end
$var wire 1 1 inst17~5_combout $end
$var wire 1 2 a2[0]~input_o $end
$var wire 1 3 a2[1]~input_o $end
$var wire 1 4 a2[2]~input_o $end
$var wire 1 5 a2[3]~input_o $end
$var wire 1 6 inst17~2_combout $end
$var wire 1 7 inst17~0_combout $end
$var wire 1 8 a1[0]~input_o $end
$var wire 1 9 a1[1]~input_o $end
$var wire 1 : a1[2]~input_o $end
$var wire 1 ; a1[3]~input_o $end
$var wire 1 < inst17~3_combout $end
$var wire 1 = inst17~1_combout $end
$var wire 1 > inst17~4_combout $end
$var wire 1 ? inst17~6_combout $end
$var wire 1 @ a3[2]~input_o $end
$var wire 1 A inst17~7_combout $end
$var wire 1 B a3[1]~input_o $end
$var wire 1 C a3[3]~input_o $end
$var wire 1 D a3[0]~input_o $end
$var wire 1 E inst17~8_combout $end
$upscope $end
$upscope $end
$enddefinitions $end
#0
$dumpvars
b101 !
b11 "
b101 #
b0 $
0%
0&
1'
x(
1)
1*
1+
0,
0-
1.
1/
00
11
12
03
14
05
16
17
18
19
0:
0;
0<
0=
1>
1?
0@
0A
0B
0C
0D
1E
$end
#10000
b111 !
b110 !
b10 "
b111 #
b1000 $
1C
13
08
0.
10
07
01
1=
1<
0>
0E
1%
0?
1E
0%
#20000
b1110 !
b1010 !
b110 "
b11 #
b1000 !
b1001 !
04
1:
1.
00
0/
1-
0=
0<
06
#30000
b100 "
b10 #
b1001 $
b0 #
b1 !
b100 #
b0 !
0.
0-
1D
02
03
14
09
1<
16
0E
1%
1A
1E
0%
#40000
b1100 "
b1100 #
b1101 $
b101 $
b100 !
b1000 "
b1101 #
b1001 #
b101 !
1.
1/
1@
0C
12
04
15
0:
1;
1=
06
17
11
0A
1?
0E
1%
#50000
b111 $
b1001 "
b111 !
b110 $
b1 "
b1 #
b10 $
b11 !
b101 "
b10 !
05
0.
10
0/
18
1:
0;
0D
1B
0@
16
1A
0?
1E
0%
#60000
b100 "
b0 !
b11 $
b100 !
1D
00
1/
08
0=
01
0A
0E
1%
#70000
b110 "
b11 #
b1011 $
b1110 "
b1010 "
b101 !
b1011 "
b1 !
1.
0/
1C
13
18
19
0:
1;
0<
06
1?
1E
0%
#80000
b1001 !
b1111 $
b1110 $
b1001 "
b110 $
b1000 !
09
0D
1@
0C
0.
1-
11
1A
0?
#90000
b10 #
b110 #
b1010 !
b100 #
b1000 "
b10 !
b10 $
b1010 "
b1010 $
0@
1C
08
19
10
0-
02
03
14
16
0A
0E
1%
#100000
b1100 #
b10 "
b110 "
b110 !
b1011 $
b1000 #
b111 "
b1111 $
b101 "
1D
1@
1/
18
09
1:
0;
04
15
1>
1=
1<
07
01
1?
1E
0%
#110000
b1101 $
b111 !
b101 !
b101 $
b1101 "
b1001 "
b1 !
b100 $
b0 $
b1011 "
19
0:
1;
1.
00
0/
0D
0B
0@
0C
17
0=
0<
0?
0E
1%
#120000
b1010 #
b10 #
b10 $
b0 !
b10 !
b1010 $
b110 !
0.
10
1/
1B
1C
13
05
07
1A
1E
0%
#130000
b11 #
b1111 "
b1011 $
b1101 "
b1011 #
b1001 $
b111 !
b101 !
b1 !
1.
00
0/
1D
0B
09
1:
12
15
0>
06
17
0A
1?
#140000
b101 "
b1101 $
b1100 $
b111 "
b0 !
0.
0D
1@
19
0;
1<
07
#150000
b1000 !
b110 "
b100 $
b11 #
b110 $
b1010 !
b1110 "
b10 $
b11 $
b1011 !
05
1D
1B
0@
0C
08
1;
1.
10
1-
0<
0?
0E
1%
#160000
b1 #
b0 #
b1100 "
b11 !
b1101 "
b101 "
b111 $
1@
0-
18
09
0;
02
03
1=
1<
1E
0%
1A
0E
1%
#170000
b100 #
b111 !
b1111 $
b1100 #
b101 !
b1110 $
b1101 #
b1101 !
b100 "
b1100 "
b1010 $
08
1;
0D
0@
1C
00
1/
1-
12
14
15
1E
0=
0<
0%
0A
0E
1%
#180000
b1000 $
b1100 !
b1111 #
b0 $
b111 #
b1110 !
b110 #
b110 !
b1101 "
b101 "
b100 $
18
0;
02
13
05
0.
10
0-
0B
1@
0C
1E
1=
1<
0%
1A
0E
1%
#190000
b101 $
b1110 #
b1101 "
b1 $
1;
15
1D
0@
0=
0<
0A
1E
0%
#200000
b1001 "
b10 !
b11 $
b1100 #
b1011 $
b0 !
b1000 !
b1000 "
b1010 $
b1110 $
03
0D
1B
1@
1C
00
0/
1-
08
0:
1=
1<
17
11
0E
1%
1?
1E
0%
#210000
b1010 "
b1001 !
b1101 #
b101 #
b10 "
b1101 !
b1111 !
12
05
1.
10
1/
19
0;
07
01
1>
16
#220000
b110 "
b1100 $
b111 #
b1000 $
b1110 !
b110 #
b1110 "
b1100 !
0.
00
02
13
0B
0@
1:
1;
0=
0<
0E
0>
06
1%
0?
1E
0%
#230000
b100 !
b1001 $
b1100 "
b1110 #
b0 !
b1000 "
b1111 #
b0 "
b10 !
12
15
09
0:
0;
1D
10
0/
0-
17
11
0E
1%
1A
1E
0%
#240000
b1011 #
b1001 #
b1101 $
b11 !
b1011 !
b1 #
b1111 !
b1101 !
1.
00
1/
1-
1@
03
04
05
16
07
01
0A
1?
#250000
b1100 $
b100 "
b1000 $
b1100 !
b1110 !
0.
10
1:
0D
0@
0E
1<
1%
1A
0?
1E
0%
#260000
b0 #
b1100 "
b10 #
b110 !
b10 !
b1001 $
b1101 $
b11 !
1D
1@
1.
0/
0-
1;
02
13
1>
0<
#270000
b1101 "
b1111 $
b1111 "
b11 #
b1 #
b1011 !
b1110 $
b1010 !
0.
1-
12
03
0D
1B
18
19
0>
0A
1?
#280000
b1000 !
b111 "
b1100 !
b110 "
b100 "
b0 #
b100 !
02
08
09
0;
00
1/
0-
17
1<
06
1A
0?
#290000
b110 $
b100 #
b1100 #
b1100 "
b0 !
b1101 #
b1000 !
0/
1-
1;
12
14
15
0C
0<
11
#300000
b1000 "
b100 $
b1111 #
b1001 "
b1100 $
b1011 #
b0 !
0-
13
04
0B
1C
18
0:
07
01
0A
0E
1%
#310000
b1101 $
b1 !
b1011 "
b11 #
b11 "
b101 !
b10 #
b0 #
02
03
05
19
0;
1.
1/
1D
17
11
1A
1E
0%
#320000
b111 !
b1111 !
b1100 $
b1110 !
b1000 #
b1011 "
1;
15
0D
0.
10
1-
07
01
1>
16
#330000
b1111 "
b1110 $
b110 $
b1100 #
b1010 !
b10 !
b11 !
b100 #
b111 "
1.
0/
0-
14
05
1B
0C
1:
0;
1<
0>
#340000
b110 "
b1 !
b111 $
b10 "
b1111 $
b0 #
b101 !
b1101 !
b1100 !
b1000 #
04
15
1D
1C
0.
00
1/
1-
08
0:
1=
1>
0A
1?
#350000
b1011 $
b1001 $
b1010 "
b1000 $
b1100 #
b1000 !
b100 #
0/
14
05
1;
0D
0B
0@
0E
0=
0<
0>
17
11
1%
0?
1E
0%
#360000
b1000 "
b110 #
b0 $
b100 $
b110 $
b0 "
b10 #
b1010 #
1B
1@
0C
13
04
15
09
0;
06
0E
1%
1A
1E
0%
#370000
b1001 !
b10 "
b1000 #
b10 $
b0 #
0@
03
05
19
1.
07
01
1=
1<
#380000
b1011 !
b110 "
b11 $
b1111 !
b1011 $
b1110 "
b1110 !
b1111 $
b1000 #
15
1D
1@
1C
1:
1;
0.
10
1/
0=
0<
1>
16
#390000
b1111 "
b110 !
b1101 $
b1101 "
b100 !
b0 !
b1001 $
0B
0@
00
0/
0-
18
09
#400000
b1100 #
b1110 #
b1000 $
b0 $
b1100 "
b10 $
b110 $
08
0D
1B
1@
0C
13
14
0>
06
0A
0E
1%
#410000
b110 #
b1000 !
b1110 "
b1110 $
b1100 $
b1000 $
0B
0@
1C
19
1-
05
17
11
1E
0%
1A
#420000
b1010 "
b1010 !
b100 #
b1001 $
b1011 "
b1100 #
1D
03
15
10
18
0:
07
01
0A
0E
1%
#430000
b10 !
b1001 "
b1 $
b1110 #
b110 #
13
05
0C
09
0-
17
11
1E
0%
1A
0E
1%
#440000
b111 #
b11 #
b0 $
b1010 !
b1011 "
19
1-
0D
12
04
1E
07
01
0%
0A
0E
1%
#450000
b11 "
b1011 !
b10 $
b110 $
b1001 !
b10 "
b1 #
b1001 #
b1000 #
b1 !
b0 "
02
03
15
1B
1@
1.
00
0-
08
09
0;
17
1>
16
#460000
b111 $
b0 !
b11 $
b10 !
b1001 #
12
0.
10
1D
0@
11
0>
06
1A
1E
0%
#470000
b110 !
b1101 #
b1 "
b101 #
b111 !
b100 #
18
02
14
05
1.
1/
01
16
1<
0A
0E
1%
#480000
b101 "
b1101 "
b110 #
b1111 "
b111 $
b101 !
b1110 "
b111 #
00
1@
12
13
08
19
1:
1;
0<
1E
11
0%
#490000
b101 $
b1101 !
b1001 !
b11 #
b1 #
b1100 "
b1011 !
b1101 "
18
09
03
04
10
0/
1-
0B
07
01
1?
0E
1%
#500000
b1010 !
b1001 "
b0 #
b1110 !
b100 #
b110 #
b1011 "
b1010 "
02
13
14
08
19
0:
0.
1/
06
0?
1E
0%
#510000
b1101 $
b1100 $
b1110 #
b1100 !
b1110 "
b1100 "
09
1:
00
15
0D
1C
0E
1%
#520000
b100 "
b1101 !
b1111 #
b1001 !
b1011 #
b1001 #
b100 $
b1 #
b0 "
0C
12
03
04
05
1.
0/
0:
0;
16
1E
0%
1?
#530000
b0 $
b1 !
b1 "
b0 !
b101 #
b1000 $
14
18
0.
0-
0@
1C
0E
1<
1>
1%
0?
1E
0%
#540000
b1010 $
b1001 "
b100 #
b1100 #
b1101 "
b1100 "
b1 !
1.
02
15
08
1:
1;
1B
0E
0<
0>
06
17
1%
1?
1E
0%
#550000
b1011 $
b101 !
b1101 !
b100 "
b1101 #
b101 #
b0 "
b1100 !
12
05
0:
0;
0.
1/
1-
1D
07
1>
16
1A
0?
#560000
b1110 !
b111 #
b1010 $
b1010 !
b10 !
0D
13
10
0/
0-
17
11
0>
0A
0E
1%
#570000
b10 "
b11 #
b1000 $
b1010 "
b10 #
b1010 #
b1110 "
b11 !
b1011 !
1.
1-
0B
02
04
15
19
1:
1;
06
1E
07
01
0%
#580000
b1100 $
b1001 !
b1101 $
b1101 !
b1100 "
b1111 $
b1011 #
b11 #
b101 !
12
05
09
00
1/
0-
1D
1B
1@
0E
17
11
1%
1A
1E
0%
#590000
b1101 "
b1 #
b101 "
b111 !
b1111 !
10
1-
03
18
0;
1=
1<
16
07
01
0A
0E
1%
#600000
b111 $
b101 #
b1 "
b110 $
b100 #
b110 #
b1001 "
b1101 !
b101 !
00
0-
0:
1;
02
13
14
0D
0C
06
0=
0<
17
11
1A
1E
0%
#610000
b10 $
b1 !
b1000 "
b1010 $
b10 #
b0 #
b11 !
b1011 !
03
04
08
10
0/
1-
0@
1C
07
01
1=
1<
#620000
b1010 !
b1010 "
b1000 $
b1 #
b10 "
b1110 !
b101 #
12
14
0B
19
0;
0.
1/
1>
16
0A
1?
0E
1%
#630000
b1101 #
b11 "
b0 $
b1100 !
b100 !
b1011 "
b0 !
b1001 #
00
0/
0-
0C
18
1;
04
15
0>
06
0=
0<
1E
0%
0?
0E
1%
#640000
b1011 #
b1 !
b1001 "
b10 $
b1010 #
b1000 "
b11 !
b1011 !
b1111 !
1B
08
09
1.
10
1/
1-
02
13
1=
1<
1E
0%
1A
#650000
b1100 "
b10 #
b1010 $
b100 "
b110 #
b111 #
b101 "
1C
12
14
05
18
1:
0;
16
0A
0E
1%
#660000
b1110 !
b1000 $
b1100 !
b100 !
b0 !
b1 "
b0 "
08
0:
0B
0.
00
0/
0-
1E
0=
0<
0%
1?
0E
1%
#670000
b1001 $
b101 #
b1101 #
b1 $
b1000 "
b1001 #
b1 !
b11 $
b101 !
b1100 "
b1101 "
1.
1/
18
1:
1;
03
04
15
1D
1B
0C
1E
06
17
11
0%
1A
0?
#680000
b111 $
b1111 "
b1000 #
b111 !
b1010 #
b111 "
b101 $
10
02
13
19
0;
0B
1@
1<
01
#690000
b1111 !
b100 $
b10 #
b1110 !
b11 "
b10 "
b0 $
b0 "
b11 #
b1100 !
b1 #
b10 $
08
09
0:
12
03
05
0D
1B
0@
0.
00
1-
07
16
0<
0A
1?
0E
1%
#700000
b101 #
b1000 "
b11 $
b1101 !
b1100 "
b100 #
b1111 !
1.
10
1D
1:
1;
02
14
1E
0%
#710000
b1011 !
b11 !
b1100 #
b1101 "
b1111 "
b1110 #
b1 $
b1010 #
b111 "
b10 !
b11 "
b1011 #
0B
18
19
0:
0;
12
13
04
15
0.
0/
0-
17
11
06
1A
0?
0E
1%
#720000
b0 $
b0 !
b1000 !
b11 #
b1001 !
b10 #
02
05
1.
00
1-
0D
1E
07
01
1>
16
0%
#730000
b10 $
b110 #
b1011 "
b1111 "
b1 !
b1110 #
b1111 #
0-
1:
1;
12
14
15
1B
0>
06
17
0A
1?
0E
1%
#740000
b110 $
b1101 "
b1101 #
b11 !
b100 $
b1001 #
b101 "
b1011 !
b1 #
10
1-
03
04
05
09
0;
0B
1@
1E
1=
1<
16
07
0%
0?
#750000
b1100 $
b1111 !
b1101 $
b1110 !
b1001 $
b1101 "
1;
0.
1/
1D
0@
1C
0E
0=
0<
1%
1?
1E
0%
#760000
b1111 "
b11 #
b1011 $
b111 #
b1111 #
b11 $
b1010 !
b1011 !
b111 $
b111 "
1.
0/
1B
1@
0C
13
14
15
19
0;
1<
06
#770000
b11 "
b1001 !
b1101 #
b101 $
b101 #
b1 $
b1011 "
0B
0@
03
05
00
0:
1;
0<
1>
16
1A
0?
0E
1%
#780000
b1010 "
b0 $
b1000 "
b1 #
b1000 $
b1000 !
b1100 "
b1010 !
b1001 #
b100 "
0.
10
04
15
0D
1C
08
09
1:
0;
1<
1E
0>
06
0%
0A
1?
0E
1%
#790000
b1000 #
b10 !
b1010 #
b1100 $
b1101 $
b110 "
b10 "
b0 !
19
0:
1D
1@
00
0-
02
13
1E
1=
0%
1A
0?
#800000
b100 !
b11 "
b1110 #
b101 !
b110 #
b1011 "
b111 #
b1101 !
b101 #
b1111 "
b1111 !
12
03
14
05
18
1:
1;
1.
10
1/
1-
0=
0<
1>
16
#810000
b1111 $
b1110 $
b1101 "
b1011 !
b1010 !
b1101 #
b101 "
b10 !
b1111 #
b0 !
13
15
0.
00
0/
0-
09
0;
0D
1B
1=
1<
0>
06
#820000
b1011 #
b1010 #
b1 "
b1111 $
b10 #
b10 !
10
1D
0:
02
04
05
1>
16
0=
17
11
#830000
b111 $
b0 "
b101 $
b110 !
b111 !
b1000 "
b110 #
b1100 "
b101 !
14
1.
00
1/
08
1:
1;
0B
0C
0<
0>
06
#840000
b1 $
b1110 "
b1101 !
b100 #
b101 #
b0 $
b1101 #
b1000 $
b1111 "
b1010 $
b1001 !
b1011 !
12
03
15
10
0/
1-
18
19
0D
1B
0@
1C
07
01
0A
0E
1%
#850000
b111 "
b1001 #
b11 "
b1110 $
b1 "
b11 !
b1111 $
b111 $
b0 "
0-
1D
1@
0C
04
08
09
0:
0;
1E
0%
#860000
b101 $
b1000 "
b1 $
b0 $
b1000 $
b1001 "
18
1;
0D
0B
0@
1C
#870000
b10 !
b1000 #
b0 !
b1100 #
b1101 "
b1010 $
b1110 $
b1111 $
b1100 "
1D
1B
1@
08
1:
02
14
0.
00
0E
1%
#880000
b1110 #
b110 #
b100 !
b100 "
b101 !
b111 #
b0 "
b1011 $
b1 "
0@
18
0:
0;
1.
1/
12
13
05
16
17
11
1<
1?
1E
0%
#890000
b11 $
b111 !
b101 #
b110 !
b100 #
b101 "
b111 $
1:
02
03
0.
10
1@
0C
07
01
1=
0?
#900000
b111 "
b110 $
b1111 "
b1110 "
b100 !
b110 #
b111 #
b10 $
12
13
00
0D
0@
08
19
1;
0=
0<
17
1A
#910000
b0 $
b1111 #
b0 !
b1 $
b110 "
b111 "
b101 $
18
0;
0/
15
1D
0B
1@
06
07
1<
0A
1?
0E
1%
#920000
b1000 !
b1011 #
b1010 !
b1001 #
b1000 #
b111 $
b110 $
0D
1B
02
03
04
10
1-
1>
16
1E
0%
0?
0E
1%
#930000
b1011 !
b1111 "
b11 !
b1 !
b1001 #
12
1;
1.
00
0-
17
0<
0>
06
1?
1E
0%
#940000
b1011 "
b1 #
b101 !
b11 "
b111 !
10
1/
05
0:
0;
16
1A
0?
#950000
b1110 $
b1 "
b11 #
b1100 $
b1101 $
b110 !
b1110 !
b101 "
b1011 #
b1010 !
b1101 "
b1000 !
0.
00
0/
1-
13
15
09
1:
1;
1D
0B
1C
06
11
#960000
b1100 "
b1111 #
b101 $
b1110 "
b1101 #
b100 $
b1001 !
b101 #
1.
0D
0C
03
14
05
08
19
1>
16
0E
07
01
1%
#970000
b100 #
b110 $
b1 !
b101 !
b110 "
b111 !
b100 "
b110 #
b111 $
09
0;
10
1/
0-
1D
1B
02
13
0>
06
17
1<
#980000
b10 #
b1111 $
b110 !
b1010 #
b1101 $
b10 !
0.
0/
0B
1C
04
15
1E
11
0%
0A
0E
1%
#990000
b0 "
b1011 #
b10 "
b1001 #
b1100 $
b1110 $
b110 !
1/
0D
1B
12
03
19
0:
1=
07
01
1A
1E
0%
